<?xml version="1.0" encoding="UTF-8" standalone="no"?>
<!-- Created with Sodipodi ("http://www.sodipodi.com/") -->
<svg
   xmlns:dc="http://purl.org/dc/elements/1.1/"
   xmlns:cc="http://creativecommons.org/ns#"
   xmlns:rdf="http://www.w3.org/1999/02/22-rdf-syntax-ns#"
   xmlns:svg="http://www.w3.org/2000/svg"
   xmlns="http://www.w3.org/2000/svg"
   xmlns:sodipodi="http://sodipodi.sourceforge.net/DTD/sodipodi-0.dtd"
   xmlns:inkscape="http://www.inkscape.org/namespaces/inkscape"
   version="1"
   x="0"
   y="0"
   width="125"
   height="125"
   id="svg101"
   sodipodi:version="0.32"
   inkscape:version="0.46"
   sodipodi:docname="uracile.svg"
   inkscape:output_extension="org.inkscape.output.svg.inkscape">
  <metadata
     id="metadata8">
    <rdf:RDF>
      <cc:Work
         rdf:about="">
        <dc:format>image/svg+xml</dc:format>
        <dc:type
           rdf:resource="http://purl.org/dc/dcmitype/StillImage" />
      </cc:Work>
    </rdf:RDF>
  </metadata>
  <sodipodi:namedview
     inkscape:window-height="1047"
     inkscape:window-width="1608"
     inkscape:pageshadow="2"
     inkscape:pageopacity="0.0"
     guidetolerance="10.0"
     gridtolerance="10.0"
     objecttolerance="10.0"
     borderopacity="1.0"
     bordercolor="#666666"
     pagecolor="#ffffff"
     id="base"
     showgrid="false"
     inkscape:zoom="3.712"
     inkscape:cx="14.951509"
     inkscape:cy="62.5"
     inkscape:window-x="37"
     inkscape:window-y="63"
     inkscape:current-layer="svg101" />
  <defs
     id="defs103">
    <inkscape:perspective
       sodipodi:type="inkscape:persp3d"
       inkscape:vp_x="0 : 62.5 : 1"
       inkscape:vp_y="0 : 1000 : 0"
       inkscape:vp_z="125 : 62.5 : 1"
       inkscape:persp3d-origin="62.5 : 41.666667 : 1"
       id="perspective10" />
  </defs>
  <g
     id="g3179">
    <path
       d="M 6.2796,6.74281 L 6.2796,118.768 L 118.718,118.768 L 118.718,6.74281 L 6.2796,6.74281 z"
       style="font-size:12px;fill:#999999;fill-rule:evenodd;stroke-width:0pt"
       id="path181" />
    <path
       id="text2396"
       d="M 83.169114,6.7552422 L 83.169114,80.216644 C 83.169114,93.302872 76.477272,99.548592 62.4988,99.548592 C 48.520329,99.548592 41.828487,93.302872 41.828487,80.216644 L 41.828487,6.7552422 L 19.522393,6.7552422 L 19.522393,80.216644 C 19.522393,92.410629 22.793961,101.03567 30.080611,107.57879 C 37.962089,114.71673 49.412572,118.58312 62.4988,118.58312 C 75.585029,118.58312 87.035511,114.71673 94.91699,107.57879 C 102.20364,101.03567 105.47521,92.410629 105.47521,80.216644 L 105.47521,6.7552422 L 83.169114,6.7552422"
       style="font-size:148.70729065px;font-style:normal;font-variant:normal;font-weight:bold;font-stretch:normal;text-align:start;line-height:100%;writing-mode:lr-tb;text-anchor:start;fill:#2d2dc8;fill-opacity:1;stroke:none;stroke-width:1px;stroke-linecap:butt;stroke-linejoin:miter;stroke-opacity:1;font-family:Nimbus Sans L;-inkscape-font-specification:Nimbus Sans L Bold" />
  </g>
</svg>
