<?xml version="1.0" encoding="UTF-8" standalone="no"?>
<!-- Created with Sodipodi ("http://www.sodipodi.com/") -->
<svg
   xmlns:dc="http://purl.org/dc/elements/1.1/"
   xmlns:cc="http://web.resource.org/cc/"
   xmlns:rdf="http://www.w3.org/1999/02/22-rdf-syntax-ns#"
   xmlns:svg="http://www.w3.org/2000/svg"
   xmlns="http://www.w3.org/2000/svg"
   xmlns:sodipodi="http://sodipodi.sourceforge.net/DTD/sodipodi-0.dtd"
   xmlns:inkscape="http://www.inkscape.org/namespaces/inkscape"
   version="1"
   x="0"
   y="0"
   width="125"
   height="125"
   id="svg101"
   sodipodi:version="0.32"
   sodipodi:docname="sulfbond.svg"
   sodipodi:docbase="/home/rusconi/devel/massxpert/data/pol-chem-defs/protein-1-letter"
   inkscape:version="0.44.1">
  <metadata
     id="metadata6">
    <rdf:RDF>
      <cc:Work
         rdf:about="">
        <dc:format>image/svg+xml</dc:format>
        <dc:type
           rdf:resource="http://purl.org/dc/dcmitype/StillImage" />
      </cc:Work>
    </rdf:RDF>
  </metadata>
  <sodipodi:namedview
     id="base"
     showguides="true"
     inkscape:guide-bbox="true"
     inkscape:zoom="3.024"
     inkscape:cx="62.5"
     inkscape:cy="62.5"
     inkscape:window-width="810"
     inkscape:window-height="576"
     inkscape:window-x="860"
     inkscape:window-y="30"
     inkscape:current-layer="svg101" />
  <defs
     id="defs103" />
  <path
     style="font-size:50px;font-style:normal;font-variant:normal;font-weight:bold;font-stretch:normal;text-align:start;line-height:100%;writing-mode:lr-tb;text-anchor:start;fill:red;fill-opacity:1;stroke:none;stroke-width:1px;stroke-linecap:butt;stroke-linejoin:miter;stroke-opacity:1;font-family:Bitstream Vera Sans"
     d="M 57.974098,9.3529778 L 57.974098,17.067822 C 55.972117,16.172668 54.018994,15.497213 52.114723,15.041454 C 50.210404,14.585755 48.411903,14.357891 46.719215,14.357861 C 44.473105,14.357891 42.812951,14.667135 41.738747,15.285595 C 40.664515,15.904113 40.127406,16.864399 40.127419,18.166454 C 40.127406,19.143042 40.485479,19.908016 41.201637,20.461376 C 41.934045,20.998509 43.252403,21.462376 45.156715,21.852978 L 49.160622,22.658642 C 53.213331,23.472465 56.094187,24.709443 57.8032,26.369579 C 59.512153,28.029752 60.366644,30.389776 60.366676,33.449657 C 60.366644,37.469847 59.170356,40.464636 56.777809,42.434032 C 54.401481,44.387158 50.763789,45.363719 45.864723,45.36372 C 43.55351,45.363719 41.234176,45.143993 38.906715,44.70454 C 36.579233,44.265088 34.251761,43.614047 31.924294,42.751415 L 31.924294,34.816845 C 34.251761,36.053833 36.497853,36.989704 38.662575,37.624462 C 40.843552,38.242958 42.943159,38.552203 44.961403,38.552197 C 47.012165,38.552203 48.582802,38.210406 49.673317,37.526806 C 50.763789,36.84322 51.309036,35.866658 51.309059,34.597118 C 51.309036,33.457807 50.934687,32.578901 50.186012,31.9604 C 49.453569,31.341923 47.980589,30.788538 45.767067,30.300243 L 42.129372,29.494579 C 38.483528,28.713345 35.81426,27.468229 34.121559,25.759228 C 32.445122,24.050264 31.606907,21.747206 31.606911,18.850048 C 31.606907,15.22052 32.778781,12.429182 35.122536,10.476025 C 37.466276,8.5229358 40.835414,7.5463742 45.229958,7.5463371 C 47.231891,7.5463742 49.290809,7.7009965 51.406715,8.0102043 C 53.522575,8.3032094 55.711701,8.7508001 57.974098,9.3529778 M 66.763161,26.711376 L 82.095192,26.711376 L 82.095192,33.815868 L 66.763161,33.815868 L 66.763161,26.711376 M 114.81004,9.3529778 L 114.81004,17.067822 C 112.80805,16.172668 110.85493,15.497213 108.95066,15.041454 C 107.04634,14.585755 105.24784,14.357891 103.55515,14.357861 C 101.30904,14.357891 99.648888,14.667135 98.574684,15.285595 C 97.500453,15.904113 96.963344,16.864399 96.963356,18.166454 C 96.963344,19.143042 97.321416,19.908016 98.037575,20.461376 C 98.769983,20.998509 100.08834,21.462376 101.99265,21.852978 L 105.99656,22.658642 C 110.04927,23.472465 112.93012,24.709443 114.63914,26.369579 C 116.34809,28.029752 117.20258,30.389776 117.20261,33.449657 C 117.20258,37.469847 116.00629,40.464636 113.61375,42.434032 C 111.23742,44.387158 107.59973,45.363719 102.70066,45.36372 C 100.38945,45.363719 98.070114,45.143993 95.742653,44.70454 C 93.41517,44.265088 91.087699,43.614047 88.760231,42.751415 L 88.760231,34.816845 C 91.087699,36.053833 93.33379,36.989704 95.498512,37.624462 C 97.679489,38.242958 99.779096,38.552203 101.79734,38.552197 C 103.8481,38.552203 105.41874,38.210406 106.50925,37.526806 C 107.59973,36.84322 108.14497,35.866658 108.145,34.597118 C 108.14497,33.457807 107.77062,32.578901 107.02195,31.9604 C 106.28951,31.341923 104.81653,30.788538 102.603,30.300243 L 98.965309,29.494579 C 95.319465,28.713345 92.650197,27.468229 90.957497,25.759228 C 89.28106,24.050264 88.442845,21.747206 88.442848,18.850048 C 88.442845,15.22052 89.614718,12.429182 91.958473,10.476025 C 94.302214,8.5229358 97.671351,7.5463742 102.0659,7.5463371 C 104.06783,7.5463742 106.12675,7.7009965 108.24265,8.0102043 C 110.35851,8.3032094 112.54764,8.7508001 114.81004,9.3529778"
     id="text1987" />
</svg>
