<?xml version="1.0" encoding="UTF-8" standalone="no"?>
<!DOCTYPE svg PUBLIC "-//W3C//DTD SVG 20010904//EN"
"http://www.w3.org/TR/2001/REC-SVG-20010904/DTD/svg10.dtd"
[
 <!ATTLIST svg
  xmlns:xlink CDATA #FIXED "http://www.w3.org/1999/xlink">
]>
<!-- Created with Sodipodi ("http://www.sodipodi.com/") -->
<svg
   xmlns="http://www.w3.org/2000/svg"
   xmlns:xlink="http://www.w3.org/1999/xlink"
   version="1"
   x="0"
   y="0"
   width="125"
   height="125"
   id="svg101">
  <defs
     id="defs103" />
  <g
     style="font-size:12;"
     id="g547">
    <path
       d="M 6.2796 6.74281 L 6.2796 118.768 L 118.718 118.768 L 118.718 6.74281 L 6.2796 6.74281 z "
       style="fill:#999999;fill-rule:evenodd;stroke-width:0pt;"
       id="path546" />
    <path
       d="M 33.4018 18.3105 L 29.7618 18.3105 L 29.7618 38.0185 L 33.4018 38.0185 L 33.4018 30.6865 C 34.2858 32.2465 35.5338 32.9745 37.3018 32.9745 C 40.6818 32.9745 43.1778 29.8025 43.1778 25.5385 C 43.1778 23.5625 42.6058 21.5865 41.6698 20.2865 C 40.7338 18.9605 38.9918 18.0765 37.3018 18.0765 C 35.5338 18.0765 34.2858 18.8305 33.4018 20.3905 L 33.4018 18.3105 z M 36.4698 21.1185 C 38.3158 21.1185 39.5378 22.9125 39.5378 25.5905 C 39.5378 28.1385 38.2638 29.9325 36.4698 29.9325 C 34.6498 29.9325 33.4018 28.1645 33.4018 25.5385 C 33.4018 22.9125 34.6498 21.1185 36.4698 21.1185 z M 19.7778 18.3105 L 19.7778 32.3505 L 23.4178 32.3505 L 23.4178 24.8885 C 23.4178 22.7565 24.4838 21.6905 26.6158 21.6905 C 27.0058 21.6905 27.2658 21.7165 27.7598 21.7945 L 27.7598 18.1025 C 27.5518 18.0765 27.4218 18.0765 27.3178 18.0765 C 25.6538 18.0765 24.1978 19.1685 23.4178 21.0665 L 23.4178 18.3105 L 19.7778 18.3105 z M 12.2638 16.6465 L 17.8018 16.6465 L 17.8018 13.3965 L 2.61783 13.3965 L 2.61783 16.6465 L 8.36383 16.6465 L 8.36383 32.3505 L 12.2638 32.3505 L 12.2638 16.6465 z "
       transform="scale(2.74021,2.74021)"
       style="font-size:26;font-weight:bold;fill:#74839b;stroke-width:1pt;font-family:Helvetica;"
       id="path545" />
  </g>
</svg>
