<?xml version="1.0" encoding="UTF-8" standalone="no"?>
<!-- Created with Sodipodi ("http://www.sodipodi.com/") -->
<svg
   xmlns:dc="http://purl.org/dc/elements/1.1/"
   xmlns:cc="http://creativecommons.org/ns#"
   xmlns:rdf="http://www.w3.org/1999/02/22-rdf-syntax-ns#"
   xmlns:svg="http://www.w3.org/2000/svg"
   xmlns="http://www.w3.org/2000/svg"
   xmlns:sodipodi="http://sodipodi.sourceforge.net/DTD/sodipodi-0.dtd"
   xmlns:inkscape="http://www.inkscape.org/namespaces/inkscape"
   version="1"
   x="0"
   y="0"
   width="125"
   height="125"
   id="svg101"
   sodipodi:version="0.32"
   inkscape:version="0.46"
   sodipodi:docname="ps-ruracile.svg"
   inkscape:output_extension="org.inkscape.output.svg.inkscape">
  <metadata
     id="metadata2537">
    <rdf:RDF>
      <cc:Work
         rdf:about="">
        <dc:format>image/svg+xml</dc:format>
        <dc:type
           rdf:resource="http://purl.org/dc/dcmitype/StillImage" />
      </cc:Work>
    </rdf:RDF>
  </metadata>
  <sodipodi:namedview
     inkscape:window-height="971"
     inkscape:window-width="1146"
     inkscape:pageshadow="2"
     inkscape:pageopacity="0.0"
     guidetolerance="10.0"
     gridtolerance="10.0"
     objecttolerance="10.0"
     borderopacity="1.0"
     bordercolor="#666666"
     pagecolor="#ffffff"
     id="base"
     showgrid="false"
     inkscape:zoom="3.712"
     inkscape:cx="30.172414"
     inkscape:cy="62.5"
     inkscape:window-x="234"
     inkscape:window-y="96"
     inkscape:current-layer="svg101" />
  <defs
     id="defs103">
    <inkscape:perspective
       sodipodi:type="inkscape:persp3d"
       inkscape:vp_x="0 : 62.5 : 1"
       inkscape:vp_y="0 : 1000 : 0"
       inkscape:vp_z="125 : 62.5 : 1"
       inkscape:persp3d-origin="62.5 : 41.666667 : 1"
       id="perspective2539" />
    <inkscape:perspective
       id="perspective10"
       inkscape:persp3d-origin="62.5 : 41.666667 : 1"
       inkscape:vp_z="125 : 62.5 : 1"
       inkscape:vp_y="0 : 1000 : 0"
       inkscape:vp_x="0 : 62.5 : 1"
       sodipodi:type="inkscape:persp3d" />
  </defs>
  <path
     id="path181"
     style="font-size:12px;fill:#999999;fill-rule:evenodd;stroke-width:0pt"
     d="M 6.2796,6.74281 L 6.2796,118.768 L 118.718,118.768 L 118.718,6.74281 L 6.2796,6.74281 z" />
  <path
     id="text2396"
     d="M 83.16911,6.841462 L 83.16911,80.302868 C 83.16911,93.389088 76.47727,99.634808 62.4988,99.634808 C 48.52033,99.634808 41.82849,93.389088 41.82849,80.302868 L 41.82849,6.841462 L 19.52239,6.841462 L 19.52239,80.302868 C 19.52239,92.496848 22.79396,101.12189 30.08061,107.66501 C 37.96209,114.80296 49.41257,118.66935 62.4988,118.66935 C 75.58503,118.66935 87.03551,114.80296 94.91699,107.66501 C 102.20364,101.12189 105.47521,92.496848 105.47521,80.302868 L 105.47521,6.841462 L 83.16911,6.841462"
     style="font-size:148.70729065px;font-style:normal;font-variant:normal;font-weight:bold;font-stretch:normal;text-align:start;line-height:100%;writing-mode:lr-tb;text-anchor:start;fill:#2d2dc8;fill-opacity:1;stroke:none;stroke-width:1px;stroke-linecap:butt;stroke-linejoin:miter;stroke-opacity:1;font-family:Nimbus Sans L;-inkscape-font-specification:Nimbus Sans L Bold" />
  <text
     xml:space="preserve"
     style="font-size:51.34014893px;font-style:normal;font-variant:normal;font-weight:normal;font-stretch:normal;text-align:start;line-height:125%;writing-mode:lr-tb;text-anchor:start;fill:#800080;fill-opacity:1;stroke:none;stroke-width:1px;stroke-linecap:butt;stroke-linejoin:miter;stroke-opacity:1;font-family:Nimbus Roman No9 L;-inkscape-font-specification:Nimbus Roman No9 L"
     x="20.190804"
     y="97.857826"
     id="text2383"
     sodipodi:linespacing="125%"><tspan
       sodipodi:role="line"
       id="tspan2385"
       x="20.190804"
       y="97.857826">P=S</tspan></text>
  <text
     xml:space="preserve"
     style="font-size:81.02272797px;font-style:normal;font-variant:normal;font-weight:normal;font-stretch:normal;text-align:start;line-height:125%;writing-mode:lr-tb;text-anchor:start;fill:#000000;fill-opacity:1;stroke:none;stroke-width:1px;stroke-linecap:butt;stroke-linejoin:miter;stroke-opacity:1;font-family:Nimbus Roman No9 L;-inkscape-font-specification:Nimbus Roman No9 L"
     x="8.7772226"
     y="49.579834"
     id="text2585"
     sodipodi:linespacing="125%"><tspan
       sodipodi:role="line"
       id="tspan2587"
       x="8.7772226"
       y="49.579834">r</tspan></text>
</svg>
